﻿beallitasok,
vezerles,pont,
microstep sw,1/2,
microstep hw,1/2,
microstep allithato,nem,
vegallaskapcsolo,igen,
x motor speed (step/mm),100.000,
y motor speed (step/mm),100.000,
lepes ido (s),0.001,
kamera furo x,3,
kamera furo y,1,
pozitiv x hatar (mm),11.670,
negativ x hatar (mm),11.670,
pozitiv y hatar (mm),14.040,
negativ y hatar (mm),14.040,
aktualis x pozicio (mm),0.000,
aktualis y pozicio (mm),0.000,
