TZ,KOZEP,0.000,0.000,
TZ,3 ORA,16.500,0.000,
TZ,MP,0.000,-7.209,
TZ,Pont 1 1,6.423,11.714,
TZ,Pont 1 2,6.423,9.764,
TZ,Pont 2 1,10.918,7.205,
TZ,Pont 2 2,10.918,5.255,
TZ,Pont 3 1,12.865,0.905,
TZ,Pont 3 2,12.865,-1.045,
TZ,Pont 4 1,11.210,-5.364,
TZ,Pont 4 2,11.210,-7.314,
TZ,Pont 5 1,6.183,-9.961,
TZ,Pont 5 2,6.183,-11.911,
TZ,Pont 7 1,-6.413,-9.830,
TZ,Pont 7 2,-6.413,-11.780,
TZ,Pont 8 1,-11.009,-5.416,
TZ,Pont 8 2,-11.009,-7.366,
TZ,Pont 9 1,-12.957,0.949,
TZ,Pont 9 2,-12.957,-1.001,
TZ,P 10 1,-9.940,7.190,
TZ,P 10 2,-9.940,5.240,
TZ,P 10 3,-11.284,7.221,
TZ,P 10 4,-11.284,5.271,
TZ,P 11 1,-5.748,9.688,
TZ,P 11 2,-5.748,11.638,
TZ,P 11 3,-6.698,9.688,
TZ,P 11 4,-6.698,11.638,
TZ,P 12 1,-0.871,13.454,
TZ,P 12 2,-0.871,11.504,
TZ,P 12 3,0.290,13.429,
TZ,P 12 4,0.290,11.479,
IWC52 53,KOZEP,0.000,0.000,
IWC52 53,3 ORA,-21.575,0.000,
IWC52 53,MP 9 ORA,10.806,0.000,
IWC52 53,LAB 1,14.560,10.590,
IWC52 53,LAB 2,-15.320,9.579,
IWC52 53,LAB 3,7.430,-16.320,
VCH DOXA,KOZEP,0.000,0.000,
VCH DOXA,3 ORA,-20.500,0.000,
VCH DOXA,MP 9 ORA,10.792,0.000,
OM385ML,KOZEP,0.000,0.000,
OM385ML,3 ORA,-19.250,0.000,
OM385ML,MP 9 ORA,9.483,0.000,
OM385ML,LAB 1,-9.891,11.843,
OM385ML,LAB 2,12.637,-8.930,
JULZSOM,Pont 1,0.000,0.000,
JULZSOM,4,20.000,20.000,
